abc           	 abc          123456 	 123445 	 
Cathryn       	 Danner       72000 	 165417 	 
abcd          	 edfg         123444 	 234643 	 
Matt          	 Meeden       69000 	 273225 	 
Robert        	 Dufour       91000 	 471163 	 
Dylan         	 Steinberg    84000 	 485913 	 
Mike          	 Griffin      72000 	 499959 	 
Daniel        	 McNamee      71000 	 547935 	 
Peter         	 Olsen        82000 	 553997 	 
Martine       	 Marshall     99000 	 633976 	 
Jean          	 Jones        94000 	 702234 	 
Dana          	 Parrish      87000 	 784372 	 
Ann           	 Coddington   82000 	 786785 	 
Melissa       	 Dufour       114000 	 849387 	 
Heather       	 James        98000 	 935460 	 
Russ          	 Vorobiev     109000 	 970016 	 